<?xml version="1.0" encoding="UTF-8"?>
<CustomTab xmlns="http://soap.sforce.com/2006/04/metadata">
    <description>Created by Lightning App Builder</description>
    <flexiPage>Marketplace_Sync</flexiPage>
    <label>Marketplace Sync</label>
    <mobileReady>true</mobileReady>
    <motif>Custom44: Hammer</motif>
</CustomTab>
